<?xml version="1.0" encoding="utf-8"?>
<!-- Generator: Adobe Illustrator 21.0.0, SVG Export Plug-In . SVG Version: 6.00 Build 0)  -->
<svg version="1.1" id="Layer_1" xmlns="http://www.w3.org/2000/svg" xmlns:xlink="http://www.w3.org/1999/xlink" x="0px" y="0px"
	 viewBox="0 0 361 314.2" style="enable-background:new 0 0 361 314.2;" xml:space="preserve">
<style type="text/css">
	.st0{clip-path:url(#SVGID_2_);fill:#ECF0FA;}
	.st1{fill:#5A51A8;}
	.st2{fill:#ECF0FA;}
	.st3{fill:#F6F7FC;}
	.st4{fill:#D9D8E3;}
	.st5{fill:#3A3180;}
</style>
<g>
	<g>
		<g>
			<defs>
				<rect id="SVGID_1_" x="0.1" width="360.9" height="314.2"/>
			</defs>
			<clipPath id="SVGID_2_">
				<use xlink:href="#SVGID_1_"  style="overflow:visible;"/>
			</clipPath>
			<path class="st0" d="M11.9,73.8L284.2,1c8.5-2.3,17.5,2.8,19.8,11.3l53.9,200c2.3,8.5-2.8,17.2-11.6,19.5L74,304.6
				c-8.5,2.3-17.5-2.8-19.8-11.3L0.6,93.2C-1.7,84.8,3.4,76,11.9,73.8L11.9,73.8z"/>
		</g>
	</g>
	<path class="st1" d="M34.7,89.9l238.2-63.5c6.5-1.7,13.3,2.3,15.2,8.7l44.6,165.6c1.7,6.5-2.3,13.3-8.7,15L85.9,279.2
		c-6.5,1.7-13.3-2.3-15.2-8.7L26,104.8C24,98.3,28,91.6,34.7,89.9L34.7,89.9z"/>
	<path class="st2" d="M61.3,71h283.6c9,0,16.1,7.3,16.1,16.1v210.2c0,9-7.3,16.1-16.1,16.1H61.3c-9,0-16.1-7.3-16.1-16.1V87
		C45.2,78.3,52.5,71,61.3,71L61.3,71z"/>
	<path class="st3" d="M80.2,93.5h246.3c6.8,0,12.4,5.6,12.4,12.4v172.7c0,6.8-5.6,12.4-12.4,12.4H80.2c-6.8,0-12.4-5.6-12.4-12.4
		V105.9C67.8,99.2,73.1,93.5,80.2,93.5L80.2,93.5z"/>
	<path class="st4" d="M67.8,105.9v60.4c2.8,0.3,5.6,0.6,8.5,0.6c35.8,0,64.9-29.1,64.9-64.9c0-2.8-0.3-5.6-0.6-8.5H80.2
		C73.1,93.5,67.8,99.2,67.8,105.9L67.8,105.9z"/>
	<path class="st5" d="M110.2,200.1c-10.9,2-22.4,13.2-34,24.3c-3.6,3.5-6.4,6.6-8.4,8.8v45.4c0,6.8,5.6,12.4,12.4,12.4h94
		c0.4-1.7,0.6-3.2,0.7-4.8c0,0,0.1-1.3,0.1-2.5C175,279.5,144.9,193.7,110.2,200.1z"/>
	<path class="st1" d="M269.8,141.7c-18.1,1.7-27.7,22.5-53.3,59.7c-27.6,39.9-53.9,69.9-72.6,89.6h182.3c6.8,0,12.4-5.6,12.4-12.4
		v-65.7C303.5,142.5,277.9,141,269.8,141.7z"/>
</g>
</svg>
