<?xml version="1.0" encoding="utf-8"?>
<!-- Generator: Adobe Illustrator 21.0.0, SVG Export Plug-In . SVG Version: 6.00 Build 0)  -->
<svg version="1.1" id="Слой_1" xmlns="http://www.w3.org/2000/svg" xmlns:xlink="http://www.w3.org/1999/xlink" x="0px" y="0px"
	 viewBox="0 0 200 200" style="enable-background:new 0 0 200 200;" xml:space="preserve">
<style type="text/css">
	.st0{fill:#5745A8;}
	.st1{fill:#3C2D84;}
	.st2{fill:#F5F5F5;}
	.st3{fill:#FFFFFF;}
</style>
<circle class="st0" cx="100" cy="100" r="100"/>
<path class="st1" d="M166.3,174.8C148.7,190.5,125.4,200,100,200C44.8,200,0,155.2,0,100c0-20.6,6.2-39.8,17-55.8L166.3,174.8z"/>
<polygon class="st2" points="136.6,74.6 125.3,63.4 100,88.7 74.6,63.4 63.4,74.6 88.7,100 63.4,125.3 74.6,136.6 100,111.3 
	125.3,136.6 136.6,125.3 111.2,100 "/>
<polygon class="st3" points="85,103.7 97,114.2 100,111.3 125.3,136.6 136.6,125.3 111.2,100 136.6,74.6 125.3,63.4 100,88.7 
	74.6,63.4 63.4,74.6 88.7,100 "/>
</svg>
